tests/com.minres.scviewer.database.test/inputs/my_db.vcd
$date
     Mar 04, 2023       15:07:04
$end

$version
 SystemC 2.3.3-Accellera --- Feb 21 2023 20:13:23
$end

$timescale
     1 ps
$end

$scope module SystemC $end
$scope module duv $end
$var wire    8  aaaaa  bus_data [7:0]  $end
$var wire    1  aaaab  data_rdy       $end
$var wire    8  aaaac  bus_addr [7:0]  $end
$var wire    1  aaaad  addr_ack       $end
$var wire    1  aaaae  addr_req       $end
$var wire    1  aaaaf  rw       $end
$var wire    1  aaaag  clk       $end
$upscope $end
$scope module tr $end
$var wire    8  aaaah  bus_data [7:0]  $end
$var wire    1  aaaai  data_rdy       $end
$var wire    8  aaaaj  bus_addr [7:0]  $end
$var wire    1  aaaak  addr_ack       $end
$var wire    1  aaaal  addr_req       $end
$var wire    1  aaaam  rw       $end
$var wire    1  aaaan  clk       $end
$upscope $end
$upscope $end
$enddefinitions  $end

$comment
All initial values are dumped below at time 0 sec = 0 timescale units.
$end

$dumpvars
b0 aaaaa
0aaaab
b0 aaaac
0aaaad
1aaaae
0aaaaf
1aaaag
b0 aaaah
0aaaai
b0 aaaaj
0aaaak
1aaaal
0aaaam
1aaaan
$end

#10000
0aaaag
0aaaan

#20000
1aaaag
1aaaan

#30000
0aaaag
0aaaan

#40000
1aaaag
1aaaan

#50000
0aaaag
0aaaan

#60000
1aaaag
1aaaan

#70000
0aaaag
0aaaan

#80000
1aaaad
1aaaag
1aaaak
1aaaan

#90000
0aaaae
0aaaag
0aaaal
0aaaan

#100000
0aaaad
1aaaag
0aaaak
1aaaan

#110000
0aaaag
0aaaan

#120000
1aaaae
1aaaag
1aaaal
1aaaan

#130000
0aaaag
0aaaan

#140000
1aaaag
1aaaan

#150000
0aaaag
0aaaan

#160000
1aaaag
1aaaan

#170000
0aaaag
0aaaan

#180000
1aaaag
1aaaan

#190000
0aaaag
0aaaan

#200000
1aaaag
1aaaan

#210000
0aaaag
0aaaan

#220000
1aaaag
1aaaan

#230000
0aaaag
0aaaan

#240000
1aaaag
1aaaan

#250000
0aaaag
0aaaan

#260000
1aaaab
1aaaag
1aaaai
1aaaan

#270000
0aaaag
0aaaan

#280000
0aaaab
1aaaad
1aaaag
0aaaai
1aaaak
1aaaan

#290000
0aaaae
0aaaag
0aaaal
0aaaan

#300000
0aaaad
1aaaag
0aaaak
1aaaan

#310000
0aaaag
0aaaan

#320000
b1 aaaac
1aaaae
1aaaag
b1 aaaaj
1aaaal
1aaaan

#330000
0aaaag
0aaaan

#340000
1aaaag
1aaaan

#350000
0aaaag
0aaaan

#360000
1aaaag
1aaaan

#370000
0aaaag
0aaaan

#380000
1aaaag
1aaaan

#390000
0aaaag
0aaaan

#400000
1aaaad
1aaaag
1aaaak
1aaaan

#410000
0aaaae
0aaaag
0aaaal
0aaaan

#420000
0aaaad
1aaaag
0aaaak
1aaaan

#430000
0aaaag
0aaaan

#440000
1aaaab
1aaaag
1aaaai
1aaaan

#450000
0aaaag
0aaaan

#460000
0aaaab
1aaaag
0aaaai
1aaaan

#470000
0aaaag
0aaaan

#480000
1aaaae
1aaaag
1aaaal
1aaaan

#490000
0aaaag
0aaaan

#500000
1aaaag
1aaaan

#510000
0aaaag
0aaaan

#520000
1aaaag
1aaaan

#530000
0aaaag
0aaaan

#540000
1aaaag
1aaaan

#550000
0aaaag
0aaaan

#560000
1aaaag
1aaaan

#570000
0aaaag
0aaaan

#580000
b1 aaaaa
1aaaab
1aaaag
b1 aaaah
1aaaai
1aaaan

#590000
0aaaag
0aaaan

#600000
0aaaab
1aaaag
0aaaai
1aaaan

#610000
0aaaag
0aaaan

#620000
1aaaad
1aaaag
1aaaak
1aaaan

#630000
0aaaae
0aaaag
0aaaal
0aaaan

#640000
0aaaad
1aaaag
0aaaak
1aaaan

#650000
0aaaag
0aaaan

#660000
b10 aaaac
1aaaae
1aaaag
b10 aaaaj
1aaaal
1aaaan

#670000
0aaaag
0aaaan

#680000
1aaaag
1aaaan

#690000
0aaaag
0aaaan

#700000
1aaaag
1aaaan

#710000
0aaaag
0aaaan

#720000
1aaaab
1aaaag
1aaaai
1aaaan

#730000
0aaaag
0aaaan

#740000
0aaaab
1aaaag
0aaaai
1aaaan

#750000
0aaaag
0aaaan

#760000
1aaaag
1aaaan

#770000
0aaaag
0aaaan

#780000
1aaaag
1aaaan

#790000
0aaaag
0aaaan

#800000
1aaaag
1aaaan

#810000
0aaaag
0aaaan

#820000
1aaaag
1aaaan

#830000
0aaaag
0aaaan

#840000
1aaaag
1aaaan

#850000
0aaaag
0aaaan

#860000
1aaaad
1aaaag
1aaaak
1aaaan

#870000
0aaaae
0aaaag
0aaaal
0aaaan

#880000
0aaaad
1aaaag
0aaaak
1aaaan

#890000
0aaaag
0aaaan

#900000
1aaaae
1aaaag
1aaaal
1aaaan

#910000
0aaaag
0aaaan

#920000
1aaaag
1aaaan

#930000
0aaaag
0aaaan

#940000
b10 aaaaa
1aaaab
1aaaag
b10 aaaah
1aaaai
1aaaan

#950000
0aaaag
0aaaan

#960000
0aaaab
1aaaad
1aaaag
0aaaai
1aaaak
1aaaan

#970000
0aaaae
0aaaag
0aaaal
0aaaan

#980000
0aaaad
1aaaag
0aaaak
1aaaan

#990000
0aaaag
0aaaan

#1000000
b11000 aaaac
1aaaae
1aaaag
b11000 aaaaj
1aaaal
1aaaan

#1010000
0aaaag
0aaaan

#1020000
1aaaad
1aaaag
1aaaak
1aaaan

#1030000
0aaaae
0aaaag
0aaaal
0aaaan

#1040000
0aaaad
1aaaag
0aaaak
1aaaan

#1050000
0aaaag
0aaaan

#1060000
1aaaag
1aaaan

#1070000
0aaaag
0aaaan

#1080000
1aaaag
1aaaan

#1090000
0aaaag
0aaaan

#1100000
1aaaag
1aaaan

#1110000
0aaaag
0aaaan

#1120000
1aaaag
1aaaan

#1130000
0aaaag
0aaaan

#1140000
1aaaag
1aaaan

#1150000
0aaaag
0aaaan

#1160000
1aaaab
1aaaag
1aaaai
1aaaan

#1170000
0aaaag
0aaaan

#1180000
0aaaab
1aaaag
0aaaai
1aaaan

#1190000
0aaaag
0aaaan

#1200000
b1001111 aaaac
1aaaae
1aaaag
b1001111 aaaaj
1aaaal
1aaaan

#1210000
0aaaag
0aaaan

#1220000
1aaaag
1aaaan

#1230000
0aaaag
0aaaan

#1240000
1aaaag
1aaaan

#1250000
0aaaag
0aaaan

#1260000
1aaaag
1aaaan

#1270000
0aaaag
0aaaan

#1280000
1aaaad
1aaaag
1aaaak
1aaaan

#1290000
0aaaae
0aaaag
0aaaal
0aaaan

#1300000
0aaaad
1aaaag
0aaaak
1aaaan

#1310000
0aaaag
0aaaan

#1320000
1aaaag
1aaaan

#1330000
0aaaag
0aaaan

#1340000
1aaaag
1aaaan

#1350000
0aaaag
0aaaan

#1360000
1aaaag
1aaaan

#1370000
0aaaag
0aaaan

#1380000
b11000 aaaaa
1aaaab
1aaaag
b11000 aaaah
1aaaai
1aaaan

#1390000
0aaaag
0aaaan

#1400000
0aaaab
1aaaag
0aaaai
1aaaan

#1410000
0aaaag
0aaaan

#1420000
b11101000 aaaac
1aaaae
1aaaag
b11101000 aaaaj
1aaaal
1aaaan

#1430000
0aaaag
0aaaan

#1440000
1aaaad
1aaaag
1aaaak
1aaaan

#1450000
0aaaae
0aaaag
0aaaal
0aaaan

#1460000
0aaaad
1aaaag
0aaaak
1aaaan

#1470000
0aaaag
0aaaan

#1480000
1aaaag
1aaaan

#1490000
0aaaag
0aaaan

#1500000
1aaaag
1aaaan

#1510000
0aaaag
0aaaan

#1520000
1aaaag
1aaaan

#1530000
0aaaag
0aaaan

#1540000
b1001111 aaaaa
1aaaab
1aaaag
b1001111 aaaah
1aaaai
1aaaan

#1550000
0aaaag
0aaaan

#1560000
0aaaab
1aaaag
0aaaai
1aaaan

#1570000
0aaaag
0aaaan

#1580000
b10000000 aaaac
1aaaae
1aaaag
b10000000 aaaaj
1aaaal
1aaaan

#1590000
0aaaag
0aaaan

#1600000
1aaaag
1aaaan

#1610000
0aaaag
0aaaan

#1620000
1aaaag
1aaaan

#1630000
0aaaag
0aaaan

#1640000
1aaaad
1aaaag
1aaaak
1aaaan

#1650000
0aaaae
0aaaag
0aaaal
0aaaan

#1660000
0aaaad
1aaaag
0aaaak
1aaaan

#1670000
0aaaag
0aaaan

#1680000
1aaaag
1aaaan

#1690000
0aaaag
0aaaan

#1700000
b11101000 aaaaa
1aaaab
1aaaag
b11101000 aaaah
1aaaai
1aaaan

#1710000
0aaaag
0aaaan

#1720000
0aaaab
1aaaag
0aaaai
1aaaan

#1730000
0aaaag
0aaaan

#1740000
b1001000 aaaac
1aaaae
1aaaag
b1001000 aaaaj
1aaaal
1aaaan

#1750000
0aaaag
0aaaan

#1760000
1aaaag
1aaaan

#1770000
0aaaag
0aaaan

#1780000
1aaaad
1aaaag
1aaaak
1aaaan

#1790000
0aaaae
0aaaag
0aaaal
0aaaan

#1800000
0aaaad
1aaaag
0aaaak
1aaaan

#1810000
0aaaag
0aaaan

#1820000
1aaaag
1aaaan

#1830000
0aaaag
0aaaan

#1840000
1aaaag
1aaaan

#1850000
0aaaag
0aaaan

#1860000
b10000000 aaaaa
1aaaab
1aaaag
b10000000 aaaah
1aaaai
1aaaan

#1870000
0aaaag
0aaaan

#1880000
0aaaab
1aaaag
0aaaai
1aaaan

#1890000
0aaaag
0aaaan

#1900000
b10111001 aaaac
1aaaae
1aaaag
b10111001 aaaaj
1aaaal
1aaaan

#1910000
0aaaag
0aaaan

#1920000
1aaaag
1aaaan

#1930000
0aaaag
0aaaan

#1940000
1aaaag
1aaaan

#1950000
0aaaag
0aaaan

#1960000
1aaaag
1aaaan

#1970000
0aaaag
0aaaan

#1980000
1aaaag
1aaaan

#1990000
0aaaag
0aaaan

#2000000
1aaaag
1aaaan

#2010000
0aaaag
0aaaan

#2020000
1aaaag
1aaaan

#2030000
0aaaag
0aaaan

#2040000
1aaaag
1aaaan

#2050000
0aaaag
0aaaan

#2060000
b1001000 aaaaa
1aaaab
1aaaad
1aaaag
b1001000 aaaah
1aaaai
1aaaak
1aaaan

#2070000
0aaaae
0aaaag
0aaaal
0aaaan

#2080000
0aaaab
0aaaad
1aaaag
0aaaai
0aaaak
1aaaan

#2090000
0aaaag
0aaaan

#2100000
b10111111 aaaac
1aaaae
1aaaaf
1aaaag
b10111111 aaaaj
1aaaal
1aaaam
1aaaan

#2110000
0aaaag
0aaaan

#2120000
1aaaag
1aaaan

#2130000
0aaaag
0aaaan

#2140000
1aaaag
1aaaan

#2150000
0aaaag
0aaaan

#2160000
1aaaad
1aaaag
1aaaak
1aaaan

#2170000
0aaaae
0aaaag
0aaaal
0aaaan

#2180000
0aaaad
1aaaag
0aaaak
1aaaan

#2190000
0aaaag
0aaaan

#2200000
1aaaag
1aaaan

#2210000
0aaaag
0aaaan

#2220000
1aaaag
1aaaan

#2230000
0aaaag
0aaaan

#2240000
1aaaag
1aaaan

#2250000
0aaaag
0aaaan

#2260000
1aaaag
1aaaan

#2270000
0aaaag
0aaaan

#2280000
1aaaag
1aaaan

#2290000
0aaaag
0aaaan

#2300000
b10111001 aaaaa
1aaaab
1aaaag
b10111001 aaaah
1aaaai
1aaaan

#2310000
0aaaag
0aaaan

#2320000
b1 aaaaa
0aaaab
1aaaag
b1 aaaah
0aaaai
1aaaan

#2330000
0aaaag
0aaaan

#2340000
1aaaab
b1000 aaaac
1aaaae
1aaaag
1aaaai
b1000 aaaaj
1aaaal
1aaaan

#2350000
0aaaag
0aaaan

#2360000
0aaaab
1aaaag
0aaaai
1aaaan

#2370000
0aaaag
0aaaan

#2380000
1aaaag
1aaaan

#2390000
0aaaag
0aaaan

#2400000
1aaaad
1aaaag
1aaaak
1aaaan

#2410000
0aaaae
0aaaag
0aaaal
0aaaan

#2420000
b1000011 aaaaa
0aaaad
1aaaag
b1000011 aaaah
0aaaak
1aaaan

#2430000
0aaaag
0aaaan

#2440000
b110111 aaaac
1aaaae
1aaaag
b110111 aaaaj
1aaaal
1aaaan

#2450000
0aaaag
0aaaan

#2460000
1aaaag
1aaaan

#2470000
0aaaag
0aaaan

#2480000
1aaaag
1aaaan

#2490000
0aaaag
0aaaan

#2500000
1aaaag
1aaaan

#2510000
0aaaag
0aaaan

#2520000
1aaaab
1aaaag
1aaaai
1aaaan

#2530000
0aaaag
0aaaan

#2540000
0aaaab
1aaaag
0aaaai
1aaaan

#2550000
0aaaag
0aaaan

#2560000
1aaaag
1aaaan

#2570000
0aaaag
0aaaan

#2580000
1aaaag
1aaaan

#2590000
0aaaag
0aaaan

#2600000
1aaaad
1aaaag
1aaaak
1aaaan

#2610000
0aaaae
0aaaag
0aaaal
0aaaan

#2620000
b10100 aaaaa
0aaaad
1aaaag
b10100 aaaah
0aaaak
1aaaan

#2630000
0aaaag
0aaaan

#2640000
b111000 aaaac
1aaaae
1aaaag
b111000 aaaaj
1aaaal
1aaaan

#2650000
0aaaag
0aaaan

#2660000
1aaaag
1aaaan

#2670000
0aaaag
0aaaan

#2680000
1aaaag
1aaaan

#2690000
0aaaag
0aaaan

#2700000
1aaaag
1aaaan

#2710000
0aaaag
0aaaan

#2720000
1aaaag
1aaaan

#2730000
0aaaag
0aaaan

#2740000
1aaaag
1aaaan

#2750000
0aaaag
0aaaan

#2760000
1aaaab
1aaaag
1aaaai
1aaaan

#2770000
0aaaag
0aaaan

#2780000
0aaaab
1aaaag
0aaaai
1aaaan

#2790000
0aaaag
0aaaan

#2800000
1aaaag
1aaaan

#2810000
0aaaag
0aaaan

#2820000
1aaaag
1aaaan

#2830000
0aaaag
0aaaan

#2840000
1aaaad
1aaaag
1aaaak
1aaaan

#2850000
0aaaae
0aaaag
0aaaal
0aaaan

#2860000
b10110011 aaaaa
0aaaad
1aaaag
b10110011 aaaah
0aaaak
1aaaan

#2870000
0aaaag
0aaaan

#2880000
b11111010 aaaac
1aaaae
1aaaag
b11111010 aaaaj
1aaaal
1aaaan

#2890000
0aaaag
0aaaan

#2900000
1aaaag
1aaaan

#2910000
0aaaag
0aaaan

#2920000
1aaaag
1aaaan

#2930000
0aaaag
0aaaan

#2940000
1aaaab
1aaaad
1aaaag
1aaaai
1aaaak
1aaaan

#2950000
0aaaae
0aaaag
0aaaal
0aaaan

#2960000
b1001011 aaaaa
0aaaab
0aaaad
1aaaag
b1001011 aaaah
0aaaai
0aaaak
1aaaan

#2970000
0aaaag
0aaaan

#2980000
b1111001 aaaac
1aaaae
1aaaag
b1111001 aaaaj
1aaaal
1aaaan

#2990000
0aaaag
0aaaan

#3000000
1aaaag
1aaaan

#3010000
0aaaag
0aaaan

#3020000
1aaaag
1aaaan

#3030000
0aaaag
0aaaan

#3040000
1aaaag
1aaaan

#3050000
0aaaag
0aaaan

#3060000
1aaaag
1aaaan

#3070000
0aaaag
0aaaan

#3080000
1aaaag
1aaaan

#3090000
0aaaag
0aaaan

#3100000
1aaaag
1aaaan

#3110000
0aaaag
0aaaan

#3120000
1aaaag
1aaaan

#3130000
0aaaag
0aaaan

#3140000
1aaaag
1aaaan

#3150000
0aaaag
0aaaan

#3160000
1aaaab
1aaaag
1aaaai
1aaaan

#3170000
0aaaag
0aaaan

#3180000
0aaaab
1aaaad
1aaaag
0aaaai
1aaaak
1aaaan

#3190000
0aaaae
0aaaag
0aaaal
0aaaan

#3200000
b10101000 aaaaa
0aaaad
1aaaag
b10101000 aaaah
0aaaak
1aaaan

#3210000
0aaaag
0aaaan

#3220000
1aaaag
1aaaan

#3230000
0aaaag
0aaaan

#3240000
1aaaag
1aaaan

#3250000
0aaaag
0aaaan

#3260000
1aaaag
1aaaan

#3270000
0aaaag
0aaaan

#3280000
1aaaag
1aaaan

#3290000
0aaaag
0aaaan

#3300000
1aaaag
1aaaan

#3310000
0aaaag
0aaaan

#3320000
1aaaag
1aaaan

#3330000
0aaaag
0aaaan

#3340000
1aaaag
1aaaan

#3350000
0aaaag
0aaaan

#3360000
1aaaag
1aaaan

#3370000
0aaaag
0aaaan

#3380000
1aaaab
1aaaag
1aaaai
1aaaan

#3390000
0aaaag
0aaaan

#3400000
0aaaab
1aaaag
0aaaai
1aaaan

